Project/transcript
# vsim -do {run -all} -c -novopt top 
# //  Questa Sim-64
# //  Version 10.1e linux_x86_64 Jun 11 2013
# //
# //  Copyright 1991-2013 Mentor Graphics Corporation
# //  All Rights Reserved.
# //
# //  THIS WORK CONTAINS TRADE SECRET AND PROPRIETARY INFORMATION
# //  WHICH IS THE PROPERTY OF MENTOR GRAPHICS CORPORATION OR ITS
# //  LICENSORS AND IS SUBJECT TO LICENSE TERMS.
# //
# Refreshing /nfs/home/m/m_arabia/COEN413/Project/work.top
# Loading sv_std.std
# Loading work.top
# Refreshing /nfs/home/m/m_arabia/COEN413/Project/work.apb_if
# Refreshing /nfs/home/m/m_arabia/COEN413/Project/work.apb_if_sv_unit
# Loading work.apb_if_sv_unit
# Loading work.apb_if
# Refreshing /nfs/home/m/m_arabia/COEN413/Project/work.test
# Refreshing /nfs/home/m/m_arabia/COEN413/Project/work.test_03_cvr_driven_sv_unit
# Loading work.test_03_cvr_driven_sv_unit
# Loading work.test
# Refreshing /nfs/home/m/m_arabia/COEN413/Project/work.mem
# Refreshing /nfs/home/m/m_arabia/COEN413/Project/work.mem_sv_unit
# Loading work.mem_sv_unit
# Loading work.mem
# run -all 
#                    0: Starting scoreboard for 64 transaction
#                    0: Starting apb_master
#                    6: Starting apb_gen for 64 transactions
#                    6: Generator Read  Addr=0x2b57 Data=0x55 id=2
#                    6: Generator Read  Addr=0xe1b2 Data=0xaa id=3
#                    6: Generator Read  Addr=0xf58e Data=0x00 id=4
#                    6: Generator Read  Addr=0x1d5c Data=0xaa id=5
#                    6: Generator Write Addr=0xfe2a Data=0xaa id=6
#                    6: Generator Write Addr=0x7ea5 Data=0x00 id=7
#                    6: Generator Read  Addr=0x1e76 Data=0x00 id=8
#                    6: Generator Write Addr=0xa519 Data=0xaa id=9
#                    6: Generator Read  Addr=0xe833 Data=0x00 id=10
#                    6: Generator Write Addr=0x9973 Data=0xff id=11
#                    6: Generator Read  Addr=0xcf27 Data=0x55 id=12
#                    6: Generator Write Addr=0x6d07 Data=0xaa id=13
#                    6: Generator Write Addr=0x8aa6 Data=0x55 id=14
#                    6: Generator Read  Addr=0x2a82 Data=0x55 id=15
#                    6: Generator Write Addr=0x695b Data=0x55 id=16
#                    6: Generator Write Addr=0x47ca Data=0x00 id=17
#                    6: Generator Read  Addr=0xc58a Data=0x00 id=18
#                    6: Generator Read  Addr=0x9fb2 Data=0xaa id=19
#                    6: Generator Write Addr=0xd3c Data=0x55 id=20
#                    6: Generator Write Addr=0x696e Data=0xff id=21
#                    6: Generator Read  Addr=0x7aaf Data=0xff id=22
#                    6: Generator Read  Addr=0x1631 Data=0xaa id=23
#                    6: Generator Write Addr=0xc8bc Data=0xaa id=24
#                    6: Generator Read  Addr=0x439e Data=0x00 id=25
#                    6: Generator Write Addr=0x34d7 Data=0x55 id=26
#                    6: Generator Read  Addr=0x8429 Data=0x00 id=27
#                    6: Generator Write Addr=0xbc74 Data=0xff id=28
#                    6: Generator Read  Addr=0x6543 Data=0x55 id=29
#                    6: Generator Write Addr=0x2780 Data=0xff id=30
#                    6: Generator Read  Addr=0xef70 Data=0x00 id=31
#                    6: Generator Write Addr=0x5312 Data=0x55 id=32
#                    6: Generator Read  Addr=0x9062 Data=0xaa id=33
#                    6: Generator Read  Addr=0x6859 Data=0xff id=34
#                    6: Generator Write Addr=0xecd1 Data=0xff id=35
#                    6: Generator Write Addr=0xf5b3 Data=0x55 id=36
#                    6: Generator Write Addr=0x119c Data=0xff id=37
#                    6: Generator Read  Addr=0x72a2 Data=0x00 id=38
#                    6: Generator Read  Addr=0xb98 Data=0xff id=39
#                    6: Generator Write Addr=0x8e96 Data=0xaa id=40
#                    6: Generator Write Addr=0xa278 Data=0xff id=41
#                    6: Generator Write Addr=0xecfb Data=0x00 id=42
#                    6: Generator Write Addr=0xe28a Data=0x55 id=43
#                    6: Generator Write Addr=0x7fe2 Data=0x00 id=44
#                    6: Generator Write Addr=0x5460 Data=0xff id=45
#                    6: Generator Write Addr=0xd06f Data=0xaa id=46
#                    6: Generator Write Addr=0x1568 Data=0x55 id=47
#                    6: Generator Write Addr=0xbe0 Data=0x00 id=48
#                    6: Generator Read  Addr=0xc6d4 Data=0xaa id=49
#                    6: Generator Write Addr=0x1651 Data=0x00 id=50
#                    6: Generator Write Addr=0xeb45 Data=0xff id=51
#                    6: Generator Write Addr=0xb0b5 Data=0xff id=52
#                    6: Generator Read  Addr=0x7623 Data=0xff id=53
#                    6: Generator Read  Addr=0x740b Data=0xaa id=54
#                    6: Generator Read  Addr=0xf3ab Data=0xff id=55
#                    6: Generator Write Addr=0x3b1a Data=0x55 id=56
#                    6: Generator Read  Addr=0x3bd1 Data=0xaa id=57
#                    6: Generator Read  Addr=0x2bbd Data=0x00 id=58
#                    6: Generator Write Addr=0xdec6 Data=0x00 id=59
#                    6: Generator Read  Addr=0xe3b0 Data=0xff id=60
#                    6: Generator Write Addr=0x8ff7 Data=0xff id=61
#                    6: Generator Read  Addr=0x1d7d Data=0x00 id=62
#                    6: Generator Read  Addr=0xdc7a Data=0x00 id=63
#                    6: Generator Read  Addr=0xd231 Data=0x00 id=64
#                    6: Generator Write Addr=0x9d0d Data=0x00 id=65
#                    6: Ending apb_gen
# 
#                    8: Master Read  Addr=0x2b57 Data=0x00 id=2
#                   10: Master Read  Addr=0xe1b2 Data=0x00 id=3
#                   12: Master Read  Addr=0xf58e Data=0x00 id=4
#                   14: Master Read  Addr=0x1d5c Data=0x00 id=5
#                   16: Master Write Addr=0xfe2a Data=0xaa id=6
#                   18: Master Write Addr=0x7ea5 Data=0x00 id=7
#                   20: Master Read  Addr=0x1e76 Data=0x00 id=8
#                   22: Master Write Addr=0xa519 Data=0xaa id=9
#                   24: Master Read  Addr=0xe833 Data=0x00 id=10
#                   26: Master Write Addr=0x9973 Data=0xff id=11
#                   28: Master Read  Addr=0xcf27 Data=0x00 id=12
#                   30: Master Write Addr=0x6d07 Data=0xaa id=13
#                   32: Master Write Addr=0x8aa6 Data=0x55 id=14
#                   34: Master Read  Addr=0x2a82 Data=0x00 id=15
#                   36: Master Write Addr=0x695b Data=0x55 id=16
#                   38: Master Write Addr=0x47ca Data=0x00 id=17
#                   40: Master Read  Addr=0xc58a Data=0x00 id=18
#                   42: Master Read  Addr=0x9fb2 Data=0x00 id=19
#                   44: Master Write Addr=0xd3c Data=0x55 id=20
#                   46: Master Write Addr=0x696e Data=0xff id=21
#                   48: Master Read  Addr=0x7aaf Data=0x00 id=22
#                   50: Master Read  Addr=0x1631 Data=0x00 id=23
#                   52: Master Write Addr=0xc8bc Data=0xaa id=24
#                   54: Master Read  Addr=0x439e Data=0x00 id=25
#                   56: Master Write Addr=0x34d7 Data=0x55 id=26
#                   58: Master Read  Addr=0x8429 Data=0x00 id=27
#                   60: Master Write Addr=0xbc74 Data=0xff id=28
#                   62: Master Read  Addr=0x6543 Data=0x00 id=29
#                   64: Master Write Addr=0x2780 Data=0xff id=30
#                   66: Master Read  Addr=0xef70 Data=0x00 id=31
#                   68: Master Write Addr=0x5312 Data=0x55 id=32
#                   70: Master Read  Addr=0x9062 Data=0x00 id=33
#                   72: Master Read  Addr=0x6859 Data=0x00 id=34
#                   74: Master Write Addr=0xecd1 Data=0xff id=35
#                   76: Master Write Addr=0xf5b3 Data=0x55 id=36
#                   78: Master Write Addr=0x119c Data=0xff id=37
#                   80: Master Read  Addr=0x72a2 Data=0x00 id=38
#                   82: Master Read  Addr=0xb98 Data=0x00 id=39
#                   84: Master Write Addr=0x8e96 Data=0xaa id=40
#                   86: Master Write Addr=0xa278 Data=0xff id=41
#                   88: Master Write Addr=0xecfb Data=0x00 id=42
#                   90: Master Write Addr=0xe28a Data=0x55 id=43
#                   92: Master Write Addr=0x7fe2 Data=0x00 id=44
#                   94: Master Write Addr=0x5460 Data=0xff id=45
#                   96: Master Write Addr=0xd06f Data=0xaa id=46
#                   98: Master Write Addr=0x1568 Data=0x55 id=47
#                  100: Master Write Addr=0xbe0 Data=0x00 id=48
#                  102: Master Read  Addr=0xc6d4 Data=0x00 id=49
#                  104: Master Write Addr=0x1651 Data=0x00 id=50
#                  106: Master Write Addr=0xeb45 Data=0xff id=51
#                  108: Master Write Addr=0xb0b5 Data=0xff id=52
#                  110: Master Read  Addr=0x7623 Data=0x00 id=53
#                  112: Master Read  Addr=0x740b Data=0x00 id=54
#                  114: Master Read  Addr=0xf3ab Data=0x00 id=55
#                  116: Master Write Addr=0x3b1a Data=0x55 id=56
#                  118: Master Read  Addr=0x3bd1 Data=0x00 id=57
#                  120: Master Read  Addr=0x2bbd Data=0x00 id=58
#                  122: Master Write Addr=0xdec6 Data=0x00 id=59
#                  124: Master Read  Addr=0xe3b0 Data=0x00 id=60
#                  126: Master Write Addr=0x8ff7 Data=0xff id=61
#                  128: Master Read  Addr=0x1d7d Data=0x00 id=62
#                  130: Master Read  Addr=0xdc7a Data=0x00 id=63
#                  132: Master Read  Addr=0xd231 Data=0x00 id=64
#                  134: Master Write Addr=0x9d0d Data=0x00 id=65
