413_PROJECT_FINAL/transcript
# vsim -do {run -all} -c -novopt top 
# //  Questa Sim-64
# //  Version 10.1e linux_x86_64 Jun 11 2013
# //
# //  Copyright 1991-2013 Mentor Graphics Corporation
# //  All Rights Reserved.
# //
# //  THIS WORK CONTAINS TRADE SECRET AND PROPRIETARY INFORMATION
# //  WHICH IS THE PROPERTY OF MENTOR GRAPHICS CORPORATION OR ITS
# //  LICENSORS AND IS SUBJECT TO LICENSE TERMS.
# //
# Refreshing /nfs/home/m/m_arabia/COEN413/413_PROJECT_FINAL/work.top
# Loading sv_std.std
# Loading work.top
# Refreshing /nfs/home/m/m_arabia/COEN413/413_PROJECT_FINAL/work.calc_if
# Refreshing /nfs/home/m/m_arabia/COEN413/413_PROJECT_FINAL/work.test_sv_unit
# Loading work.test_sv_unit
# Loading work.calc_if
# Refreshing /nfs/home/m/m_arabia/COEN413/413_PROJECT_FINAL/work.test
# Loading work.test
# Refreshing /nfs/home/m/m_arabia/COEN413/413_PROJECT_FINAL/work.calc2_top
# Loading work.calc2_top
# Refreshing /nfs/home/m/m_arabia/COEN413/413_PROJECT_FINAL/work.adder
# Loading work.adder
# Refreshing /nfs/home/m/m_arabia/COEN413/413_PROJECT_FINAL/work.alu_input_stage
# Loading work.alu_input_stage
# Refreshing /nfs/home/m/m_arabia/COEN413/413_PROJECT_FINAL/work.alu_output_stage
# Loading work.alu_output_stage
# Refreshing /nfs/home/m/m_arabia/COEN413/413_PROJECT_FINAL/work.holdreg
# Loading work.holdreg
# Refreshing /nfs/home/m/m_arabia/COEN413/413_PROJECT_FINAL/work.mux_out
# Loading work.mux_out
# Refreshing /nfs/home/m/m_arabia/COEN413/413_PROJECT_FINAL/work.priority
# Loading work.priority
# Refreshing /nfs/home/m/m_arabia/COEN413/413_PROJECT_FINAL/work.shifter
# Loading work.shifter
# ** Warning: (vsim-3017) top.sv(60): [TFMPC] - Too few port connections. Expected 30, found 26.
#         Region: /top/m1
# ** Warning: (vsim-3722) top.sv(60): [TFMPC] - Missing connection for port 'scan_out'.
# ** Warning: (vsim-3722) top.sv(60): [TFMPC] - Missing connection for port 'a_clk'.
# ** Warning: (vsim-3722) top.sv(60): [TFMPC] - Missing connection for port 'b_clk'.
# ** Warning: (vsim-3722) top.sv(60): [TFMPC] - Missing connection for port 'scan_in'.
# ** Warning: (vsim-3017) calc2_top.v(275): [TFMPC] - Too few port connections. Expected 41, found 40.
#         Region: /top/m1/priority1
# run -all 
# 
#  ***** START OF DIRECT TESTS 
# 
#    ---   Beginning Master   ---
# 
# [ CORRECT ]	 Port #: 1 	Expected value:         13 	Received Value:    13
# 
# [ CORRECT ]	 Port #: 2 	Expected value:         13 	Received Value:    13
# 
# [ CORRECT ]	 Port #: 3 	Expected value:         13 	Received Value:    13
# 
# [ CORRECT ]	 Port #: 4 	Expected value:         13 	Received Value:    13
# 
# [ CORRECT ]	 Port #: 1 	Expected value:         13 	Received Value:    13
# 
# [ CORRECT ]	 Port #: 2 	Expected value:         13 	Received Value:    13
# 
# [  ERROR  ]	 Port #: 3 	Expected value:       8192 	Received Value:    13 	 CMD : 0101 	D1 :     8 D2 :         10
# 
# [  ERROR  ]	 Port #: 4 	Expected value:       8192 	Received Value:    13 	 CMD : 0101 	D1 :     8 D2 :         10
# 
# [  ERROR  ]	 Port #: 1 	Expected value:         12 	Received Value:    15 	 CMD : 0001 	D1 :     2 D2 :         10
# 
# [  ERROR  ]	 Port #: 2 	Expected value:         12 	Received Value:    15 	 CMD : 0001 	D1 :     2 D2 :         10
# 
# [ CORRECT ]	 Port #: 1 	Expected value:       8192 	Received Value:  8192
# 
# [  ERROR  ]	 Port #: 3 	Expected value:         12 	Received Value:    15 	 CMD : 0001 	D1 :     2 D2 :         10
# 
# [ CORRECT ]	 Port #: 2 	Expected value:       8192 	Received Value:  8192
# 
# [  ERROR  ]	 Port #: 4 	Expected value:         12 	Received Value:    15 	 CMD : 0001 	D1 :     2 D2 :         10
# 
# [  ERROR  ]	 Port #: 1 	Expected value:         11 	Received Value:    18 	 CMD : 0001 	D1 :     1 D2 :         10
# 
# [ CORRECT ]	 Port #: 3 	Expected value:       8192 	Received Value:  8192
# 
# [  ERROR  ]	 Port #: 2 	Expected value:         11 	Received Value:    18 	 CMD : 0001 	D1 :     1 D2 :         10
# 
# [ CORRECT ]	 Port #: 4 	Expected value:       8192 	Received Value:  8192
# 
# [  ERROR  ]	 Port #: 3 	Expected value:         11 	Received Value:    18 	 CMD : 0001 	D1 :     1 D2 :         10
# 
# [  ERROR  ]	 Port #: 4 	Expected value:         11 	Received Value:    18 	 CMD : 0001 	D1 :     1 D2 :         10
# 
# [  ERROR  ]	 Port #: 1 	Expected value:         11 	Received Value:    20 	 CMD : 0001 	D1 :     1 D2 :         10
# 
# [  ERROR  ]	 Port #: 2 	Expected value:         11 	Received Value:    20 	 CMD : 0001 	D1 :     1 D2 :         10
# 
# [  ERROR  ]	 Port #: 3 	Expected value:         11 	Received Value:    20 	 CMD : 0001 	D1 :     1 D2 :         10
# 
# [  ERROR  ]	 Port #: 4 	Expected value:         11 	Received Value:    20 	 CMD : 0001 	D1 :     1 D2 :         10
# 
# [  ERROR  ]	 Port #: 1 	Expected value:         15 	Received Value:    12 	 CMD : 0001 	D1 :     5 D2 :         10
# 
# [  ERROR  ]	 Port #: 2 	Expected value:         15 	Received Value:    12 	 CMD : 0001 	D1 :     5 D2 :         10
# 
# [  ERROR  ]	 Port #: 3 	Expected value:         15 	Received Value:    12 	 CMD : 0001 	D1 :     5 D2 :         10
# 
# [  ERROR  ]	 Port #: 4 	Expected value:         15 	Received Value:    12 	 CMD : 0001 	D1 :     5 D2 :         10
# 
# [  ERROR  ]	 Port #: 1 	Expected value: 4294967290 	Received Value:    11 	 CMD : 0010 	D1 :     4 D2 :         10
# 
# [  ERROR  ]	 Port #: 2 	Expected value: 4294967290 	Received Value:    11 	 CMD : 0010 	D1 :     4 D2 :         10
# 
# [ CORRECT ]	 Port #: 1 	Expected value:       3072 	Received Value:  3072
# 
# [  ERROR  ]	 Port #: 3 	Expected value:         16 	Received Value:    11 	 CMD : 0001 	D1 :     6 D2 :         10
# 
# [ CORRECT ]	 Port #: 2 	Expected value:       3072 	Received Value:  3072
# 
# [  ERROR  ]	 Port #: 4 	Expected value:         16 	Received Value:    11 	 CMD : 0001 	D1 :     6 D2 :         10
# 
# [  ERROR  ]	 Port #: 1 	Expected value:         19 	Received Value:    11 	 CMD : 0001 	D1 :     9 D2 :         10
# 
# [ CORRECT ]	 Port #: 3 	Expected value:       3072 	Received Value:  3072
# 
# [  ERROR  ]	 Port #: 2 	Expected value:         19 	Received Value:    11 	 CMD : 0001 	D1 :     9 D2 :         10
# 
# [ CORRECT ]	 Port #: 4 	Expected value:       3072 	Received Value:  3072
# 
# [  ERROR  ]	 Port #: 3 	Expected value:         19 	Received Value:    11 	 CMD : 0001 	D1 :     9 D2 :         10
# 
# [  ERROR  ]	 Port #: 4 	Expected value:         19 	Received Value:    11 	 CMD : 0001 	D1 :     9 D2 :         10
# 
# [  ERROR  ]	 Port #: 1 	Expected value:         13 	Received Value:    15 	 CMD : 0001 	D1 :     3 D2 :         10
# 
# [  ERROR  ]	 Port #: 2 	Expected value:         13 	Received Value:    15 	 CMD : 0001 	D1 :     3 D2 :         10
# 
# [ CORRECT ]	 Port #: 1 	Expected value:         15 	Received Value:    15
# 
# [ CORRECT ]	 Port #: 2 	Expected value:         15 	Received Value:    15
# 
# [ CORRECT ]	 Port #: 3 	Expected value:         15 	Received Value:    15
# 
# [ CORRECT ]	 Port #: 4 	Expected value:         15 	Received Value:    15
# 
# [ CORRECT ]	 Port #: 1 	Expected value:         20 	Received Value:    20
# 
# [ CORRECT ]	 Port #: 2 	Expected value:         20 	Received Value:    20
# 
# [  ERROR  ]	 Port #: 3 	Expected value:          0 	Received Value:    20 	 CMD : 0110 	D1 :     0 D2 :         10
# 
# [  ERROR  ]	 Port #: 4 	Expected value:          0 	Received Value:    20 	 CMD : 0110 	D1 :     0 D2 :         10
# 
# [  ERROR  ]	 Port #: 1 	Expected value:         15 	Received Value:    16 	 CMD : 0001 	D1 :     5 D2 :         10
# 
# [  ERROR  ]	 Port #: 2 	Expected value:         15 	Received Value:    16 	 CMD : 0001 	D1 :     5 D2 :         10
# 
# [  ERROR  ]	 Port #: 3 	Expected value:         15 	Received Value:    16 	 CMD : 0001 	D1 :     5 D2 :         10
# 
# [  ERROR  ]	 Port #: 4 	Expected value:         15 	Received Value:    16 	 CMD : 0001 	D1 :     5 D2 :         10
# 
# [  ERROR  ]	 Port #: 1 	Expected value:         14 	Received Value:    20 	 CMD : 0001 	D1 :     4 D2 :         10
# 
# [  ERROR  ]	 Port #: 2 	Expected value:         14 	Received Value:    20 	 CMD : 0001 	D1 :     4 D2 :         10
# 
# [  ERROR  ]	 Port #: 3 	Expected value:         14 	Received Value:    20 	 CMD : 0001 	D1 :     4 D2 :         10
# 
# [  ERROR  ]	 Port #: 4 	Expected value:         14 	Received Value:    20 	 CMD : 0001 	D1 :     4 D2 :         10
# 
# [  ERROR  ]	 Port #: 1 	Expected value:         17 	Received Value:    15 	 CMD : 0001 	D1 :     7 D2 :         10
# 
# [  ERROR  ]	 Port #: 2 	Expected value:         17 	Received Value:    15 	 CMD : 0001 	D1 :     7 D2 :         10
# 
# [  ERROR  ]	 Port #: 3 	Expected value:         17 	Received Value:    15 	 CMD : 0001 	D1 :     7 D2 :         10
# 
# [  ERROR  ]	 Port #: 4 	Expected value:         17 	Received Value:    15 	 CMD : 0001 	D1 :     7 D2 :         10
# 
# [  ERROR  ]	 Port #: 1 	Expected value:         15 	Received Value:    14 	 CMD : 0001 	D1 :     5 D2 :         10
# 
# [  ERROR  ]	 Port #: 2 	Expected value:         15 	Received Value:    14 	 CMD : 0001 	D1 :     5 D2 :         10
# 
# [  ERROR  ]	 Port #: 3 	Expected value:         15 	Received Value:    14 	 CMD : 0001 	D1 :     5 D2 :         10
# 
# [  ERROR  ]	 Port #: 4 	Expected value:         15 	Received Value:    14 	 CMD : 0001 	D1 :     5 D2 :         10
# 
# [  ERROR  ]	 Port #: 1 	Expected value:         11 	Received Value:    19 	 CMD : 0001 	D1 :     1 D2 :         10
# 
# [  ERROR  ]	 Port #: 2 	Expected value:         11 	Received Value:    19 	 CMD : 0001 	D1 :     1 D2 :         10
# 
# [  ERROR  ]	 Port #: 3 	Expected value:         11 	Received Value:    19 	 CMD : 0001 	D1 :     1 D2 :         10
# 
# [  ERROR  ]	 Port #: 4 	Expected value:         11 	Received Value:    19 	 CMD : 0001 	D1 :     1 D2 :         10
# 
# [  ERROR  ]	 Port #: 1 	Expected value:         16 	Received Value:    19 	 CMD : 0001 	D1 :     6 D2 :         10
# 
# [  ERROR  ]	 Port #: 2 	Expected value:         16 	Received Value:    19 	 CMD : 0001 	D1 :     6 D2 :         10
# 
# [  ERROR  ]	 Port #: 3 	Expected value:         10 	Received Value:    19 	 CMD : 0001 	D1 :     0 D2 :         10
# 
# [  ERROR  ]	 Port #: 4 	Expected value:         10 	Received Value:    19 	 CMD : 0001 	D1 :     0 D2 :         10
# 
# [  ERROR  ]	 Port #: 1 	Expected value: 4294967288 	Received Value:    17 	 CMD : 0010 	D1 :     2 D2 :         10
# 
# [  ERROR  ]	 Port #: 2 	Expected value: 4294967288 	Received Value:    17 	 CMD : 0010 	D1 :     2 D2 :         10
# 
# [  ERROR  ]	 Port #: 3 	Expected value: 4294967288 	Received Value:    17 	 CMD : 0010 	D1 :     2 D2 :         10
# 
# [  ERROR  ]	 Port #: 4 	Expected value: 4294967288 	Received Value:    17 	 CMD : 0010 	D1 :     2 D2 :         10
# 
# [  ERROR  ]	 Port #: 1 	Expected value:          0 	Received Value:    15 	 CMD : 0110 	D1 :     3 D2 :         10
# 
# [  ERROR  ]	 Port #: 2 	Expected value:          0 	Received Value:    15 	 CMD : 0110 	D1 :     3 D2 :         10
# 
# [ CORRECT ]	 Port #: 1 	Expected value:         12 	Received Value:    12
# 
# [ CORRECT ]	 Port #: 2 	Expected value:         12 	Received Value:    12
# 
# [ CORRECT ]	 Port #: 3 	Expected value:         12 	Received Value:    12
# 
# [ CORRECT ]	 Port #: 4 	Expected value:         12 	Received Value:    12
# 
# [ CORRECT ]	 Port #: 1 	Expected value:         12 	Received Value:    12
# 
# [ CORRECT ]	 Port #: 2 	Expected value:         12 	Received Value:    12
# 
# [  ERROR  ]	 Port #: 3 	Expected value:         16 	Received Value:    12 	 CMD : 0001 	D1 :     6 D2 :         10
# 
# [  ERROR  ]	 Port #: 4 	Expected value:         16 	Received Value:    12 	 CMD : 0001 	D1 :     6 D2 :         10
# 
# [  ERROR  ]	 Port #: 1 	Expected value:       3072 	Received Value:    11 	 CMD : 0101 	D1 :     3 D2 :         10
# 
# [  ERROR  ]	 Port #: 2 	Expected value:       3072 	Received Value:    11 	 CMD : 0101 	D1 :     3 D2 :         10
# 
# [  ERROR  ]	 Port #: 3 	Expected value:       3072 	Received Value:    11 	 CMD : 0101 	D1 :     3 D2 :         10
# 
# [  ERROR  ]	 Port #: 4 	Expected value:       3072 	Received Value:    11 	 CMD : 0101 	D1 :     3 D2 :         10
# 
#  ***** END OF DIRECTED TEST ***** 
# 
# ** Note: $finish    : tests/test.sv(24)
#    Time: 10450 ns  Iteration: 2  Instance: /top/t1
