Lab_6/transcript
# vsim -do {run -all} -c -novopt top 
# //  Questa Sim-64
# //  Version 10.1e linux_x86_64 Jun 11 2013
# //
# //  Copyright 1991-2013 Mentor Graphics Corporation
# //  All Rights Reserved.
# //
# //  THIS WORK CONTAINS TRADE SECRET AND PROPRIETARY INFORMATION
# //  WHICH IS THE PROPERTY OF MENTOR GRAPHICS CORPORATION OR ITS
# //  LICENSORS AND IS SUBJECT TO LICENSE TERMS.
# //
# Refreshing /nfs/home/m/m_arabia/COEN413/Project_2/work.top
# Loading sv_std.std
# Loading work.top
# Refreshing /nfs/home/m/m_arabia/COEN413/Project_2/work.calc_if
# Refreshing /nfs/home/m/m_arabia/COEN413/Project_2/work.test_sv_unit
# Loading work.test_sv_unit
# Loading work.calc_if
# Refreshing /nfs/home/m/m_arabia/COEN413/Project_2/work.test
# Loading work.test
# Refreshing /nfs/home/m/m_arabia/COEN413/Project_2/work.calc2_top
# Loading work.calc2_top
# Refreshing /nfs/home/m/m_arabia/COEN413/Project_2/work.adder
# Loading work.adder
# Refreshing /nfs/home/m/m_arabia/COEN413/Project_2/work.alu_input_stage
# Loading work.alu_input_stage
# Refreshing /nfs/home/m/m_arabia/COEN413/Project_2/work.alu_output_stage
# Loading work.alu_output_stage
# Refreshing /nfs/home/m/m_arabia/COEN413/Project_2/work.holdreg
# Loading work.holdreg
# Refreshing /nfs/home/m/m_arabia/COEN413/Project_2/work.mux_out
# Loading work.mux_out
# Refreshing /nfs/home/m/m_arabia/COEN413/Project_2/work.priority
# Loading work.priority
# Refreshing /nfs/home/m/m_arabia/COEN413/Project_2/work.shifter
# Loading work.shifter
# ** Warning: (vsim-3017) top.sv(60): [TFMPC] - Too few port connections. Expected 30, found 26.
#         Region: /top/m1
# ** Warning: (vsim-3722) top.sv(60): [TFMPC] - Missing connection for port 'scan_out'.
# ** Warning: (vsim-3722) top.sv(60): [TFMPC] - Missing connection for port 'a_clk'.
# ** Warning: (vsim-3722) top.sv(60): [TFMPC] - Missing connection for port 'b_clk'.
# ** Warning: (vsim-3722) top.sv(60): [TFMPC] - Missing connection for port 'scan_in'.
# ** Warning: (vsim-3017) calc2_top.v(275): [TFMPC] - Too few port connections. Expected 41, found 40.
#         Region: /top/m1/priority1
# run -all 
# TEST START
#                    0: Starting apb_master
# weird
# weird
# weird
# weird
#                  350: Starting apb_gen for 400 transactions
#                  350: Ending apb_gen
# 
# @1750: On port #:           3, Cmd:                                     0001, Data1: 58b6e839, Data2: bef81dc8, ERROR monitor data (b7a5496a) does not match expected value (17af0601)
# @1850: On port #:           4, Cmd:                                     0001, Data1: 58b6e839, Data2: bef81dc8, ERROR monitor data (b7a5496a) does not match expected value (17af0601)
# @1950: On port #:           1, Cmd:                                     0110, Data1: 5f70e104, Data2: 7ffe0e62, ERROR monitor data (afdec68d) does not match expected value (17dc3841)
# @2050: On port #:           2, Cmd:                                     0110, Data1: 5f70e104, Data2: 7ffe0e62, ERROR monitor data (afdec68d) does not match expected value (17dc3841)
# @2150: On port #:           3, Cmd:                                     0110, Data1: 5f70e104, Data2: 7ffe0e62, ERROR monitor data (afdec68d) does not match expected value (17dc3841)
# @2250: On port #:           4, Cmd:                                     0110, Data1: 5f70e104, Data2: 7ffe0e62, ERROR monitor data (afdec68d) does not match expected value (17dc3841)
# @2350: On port #:           1, Cmd:                                     0101, Data1: 6a3d2551, Data2: edfe129b, ERROR monitor data (ffde7b59) does not match expected value (88000000)
# @2450: On port #:           2, Cmd:                                     0101, Data1: 6a3d2551, Data2: edfe129b, ERROR monitor data (ffde7b59) does not match expected value (88000000)
# @2550: On port #:           3, Cmd:                                     0101, Data1: 6a3d2551, Data2: edfe129b, ERROR monitor data (ffde7b59) does not match expected value (88000000)
# @2650: On port #:           4, Cmd:                                     0101, Data1: 6a3d2551, Data2: edfe129b, ERROR monitor data (ffde7b59) does not match expected value (88000000)
# @2750: On port #:           1, Cmd:                                     0101, Data1: c9bb63b8, Data2: 66489198, ERROR monitor data (9faf0601) does not match expected value (b8000000)
# @2850: On port #:           2, Cmd:                                     0101, Data1: c9bb63b8, Data2: 66489198, ERROR monitor data (9faf0601) does not match expected value (b8000000)
# @2950: On port #:           3, Cmd:                                     0101, Data1: c9bb63b8, Data2: 66489198, ERROR monitor data (9faf0601) does not match expected value (b8000000)
# @3050: On port #:           4, Cmd:                                     0101, Data1: c9bb63b8, Data2: 66489198, ERROR monitor data (9faf0601) does not match expected value (b8000000)
# @3150: On port #:           1, Cmd:                                     0101, Data1: f240c5c5, Data2: e5c6ee7d, ERROR monitor data (88000000) does not match expected value (a0000000)
# @3250: On port #:           2, Cmd:                                     0101, Data1: f240c5c5, Data2: e5c6ee7d, ERROR monitor data (88000000) does not match expected value (a0000000)
# @3350: On port #:           3, Cmd:                                     0101, Data1: f240c5c5, Data2: e5c6ee7d, ERROR monitor data (88000000) does not match expected value (a0000000)
# @3450: On port #:           4, Cmd:                                     0101, Data1: f240c5c5, Data2: e5c6ee7d, ERROR monitor data (88000000) does not match expected value (a0000000)
# @3550: On port #:           1, Cmd:                                     0110, Data1: f97f489e, Data2: a665fa85, ERROR monitor data (b8000000) does not match expected value (07cbfa44)
# @3650: On port #:           2, Cmd:                                     0110, Data1: f97f489e, Data2: a665fa85, ERROR monitor data (b8000000) does not match expected value (07cbfa44)
# @3750: On port #:           3, Cmd:                                     0110, Data1: f97f489e, Data2: a665fa85, ERROR monitor data (b8000000) does not match expected value (07cbfa44)
# @3850: On port #:           4, Cmd:                                     0110, Data1: f97f489e, Data2: a665fa85, ERROR monitor data (b8000000) does not match expected value (07cbfa44)
# @3950: On port #:           1, Cmd:                                     0001, Data1: 2efcfd51, Data2: e105017f, ERROR monitor data (9797fed0) does not match expected value (1001fed0)
# @4050: On port #:           2, Cmd:                                     0001, Data1: 2efcfd51, Data2: e105017f, ERROR monitor data (9797fed0) does not match expected value (1001fed0)
# @4150: On port #:           3, Cmd:                                     0001, Data1: 2efcfd51, Data2: e105017f, ERROR monitor data (9797fed0) does not match expected value (1001fed0)
# weird
# @4250: On port #:           3, Cmd:                                     0001, Data1: 2efcfd51, Data2: e105017f, ERROR monitor data (00000000) does not match expected value (1001fed0)
# @4350: On port #:           1, Cmd:                                     0001, Data1: 50066381, Data2: f48fb6cb, ERROR monitor data (56d6defc) does not match expected value (44961a4c)
# weird
# @4450: On port #:           1, Cmd:                                     0110, Data1: fc1503a9, Data2: 6a83d3d7, ERROR monitor data (00000000) does not match expected value (000001f8)
# weird
# @4550: On port #:           1, Cmd:                                     0110, Data1: fc1503a9, Data2: 6a83d3d7, ERROR monitor data (00000000) does not match expected value (000001f8)
# weird
# @4550: On port #:           2, Cmd:                                     0001, Data1: 6cc79770, Data2: 530a78e0, ERROR monitor data (00000000) does not match expected value (bfd21050)
# weird
# @4550: On port #:           4, Cmd:                                     0110, Data1: fc1503a9, Data2: 6a83d3d7, ERROR monitor data (00000000) does not match expected value (000001f8)
# weird
# @4650: On port #:           1, Cmd:                                     0110, Data1: fc1503a9, Data2: 6a83d3d7, ERROR monitor data (00000000) does not match expected value (000001f8)
# weird
# @4650: On port #:           2, Cmd:                                     0001, Data1: 6cc79770, Data2: 530a78e0, ERROR monitor data (00000000) does not match expected value (bfd21050)
# weird
# @4650: On port #:           3, Cmd:                                     0110, Data1: fc1503a9, Data2: 6a83d3d7, ERROR monitor data (00000000) does not match expected value (000001f8)
# weird
# @4750: On port #:           2, Cmd:                                     0110, Data1: fc1503a9, Data2: 6a83d3d7, ERROR monitor data (00000000) does not match expected value (000001f8)
# weird
# @4750: On port #:           3, Cmd:                                     0110, Data1: fc1503a9, Data2: 6a83d3d7, ERROR monitor data (00000000) does not match expected value (000001f8)
# weird
# @4750: On port #:           4, Cmd:                                     0110, Data1: fc1503a9, Data2: 6a83d3d7, ERROR monitor data (00000000) does not match expected value (000001f8)
# weird
# @4850: On port #:           1, Cmd:                                     0110, Data1: fc1503a9, Data2: 6a83d3d7, ERROR monitor data (00000000) does not match expected value (000001f8)
# weird
# @4850: On port #:           3, Cmd:                                     0110, Data1: fc1503a9, Data2: 6a83d3d7, ERROR monitor data (00000000) does not match expected value (000001f8)
# weird
# @4850: On port #:           4, Cmd:                                     0110, Data1: fc1503a9, Data2: 6a83d3d7, ERROR monitor data (00000000) does not match expected value (000001f8)
# weird
# @4950: On port #:           1, Cmd:                                     0110, Data1: fc1503a9, Data2: 6a83d3d7, ERROR monitor data (00000000) does not match expected value (000001f8)
# weird
# @4950: On port #:           2, Cmd:                                     0110, Data1: fc1503a9, Data2: 6a83d3d7, ERROR monitor data (00000000) does not match expected value (000001f8)
# @4950: On port #:           3, Cmd:                                     0101, Data1: 35a034e4, Data2: 9a4fe40c, ERROR monitor data (3784037a) does not match expected value (034e4000)
# weird
# @4950: On port #:           4, Cmd:                                     0110, Data1: fc1503a9, Data2: 6a83d3d7, ERROR monitor data (00000000) does not match expected value (000001f8)
# weird
# @5050: On port #:           1, Cmd:                                     0110, Data1: fc1503a9, Data2: 6a83d3d7, ERROR monitor data (00000000) does not match expected value (000001f8)
# weird
# @5050: On port #:           2, Cmd:                                     0110, Data1: fc1503a9, Data2: 6a83d3d7, ERROR monitor data (00000000) does not match expected value (000001f8)
# weird
# @5050: On port #:           3, Cmd:                                     0110, Data1: fc1503a9, Data2: 6a83d3d7, ERROR monitor data (00000000) does not match expected value (000001f8)
# @5050: On port #:           4, Cmd:                                     0101, Data1: 35a034e4, Data2: 9a4fe40c, ERROR monitor data (3784037a) does not match expected value (034e4000)
# weird
# @5150: On port #:           2, Cmd:                                     0101, Data1: 8f5ce51d, Data2: 685231d4, ERROR monitor data (00000000) does not match expected value (51d00000)
# weird
# @5150: On port #:           3, Cmd:                                     0101, Data1: 8f5ce51d, Data2: 685231d4, ERROR monitor data (00000000) does not match expected value (51d00000)
# weird
# @5150: On port #:           4, Cmd:                                     0101, Data1: 8f5ce51d, Data2: 685231d4, ERROR monitor data (00000000) does not match expected value (51d00000)
# weird
# @5250: On port #:           1, Cmd:                                     0101, Data1: 8f5ce51d, Data2: 685231d4, ERROR monitor data (00000000) does not match expected value (51d00000)
# weird
# @5250: On port #:           3, Cmd:                                     0101, Data1: 8f5ce51d, Data2: 685231d4, ERROR monitor data (00000000) does not match expected value (51d00000)
# weird
# @5250: On port #:           4, Cmd:                                     0101, Data1: 8f5ce51d, Data2: 685231d4, ERROR monitor data (00000000) does not match expected value (51d00000)
# weird
# @5350: On port #:           1, Cmd:                                     0101, Data1: 8f5ce51d, Data2: 685231d4, ERROR monitor data (00000000) does not match expected value (51d00000)
# weird
# @5350: On port #:           2, Cmd:                                     0101, Data1: 8f5ce51d, Data2: 685231d4, ERROR monitor data (00000000) does not match expected value (51d00000)
# @5350: On port #:           3, Cmd:                                     0110, Data1: 64805744, Data2: eb6b465a, ERROR monitor data (bfd21050) does not match expected value (00000019)
# weird
# @5350: On port #:           4, Cmd:                                     0101, Data1: 8f5ce51d, Data2: 685231d4, ERROR monitor data (00000000) does not match expected value (51d00000)
# weird
# @5450: On port #:           1, Cmd:                                     0101, Data1: 8f5ce51d, Data2: 685231d4, ERROR monitor data (00000000) does not match expected value (51d00000)
# weird
# @5450: On port #:           2, Cmd:                                     0101, Data1: 8f5ce51d, Data2: 685231d4, ERROR monitor data (00000000) does not match expected value (51d00000)
# weird
# @5450: On port #:           3, Cmd:                                     0101, Data1: 8f5ce51d, Data2: 685231d4, ERROR monitor data (00000000) does not match expected value (51d00000)
# @5450: On port #:           4, Cmd:                                     0110, Data1: 64805744, Data2: eb6b465a, ERROR monitor data (bfd21050) does not match expected value (00000019)
# weird
# @5550: On port #:           1, Cmd:                                     0101, Data1: 8f5ce51d, Data2: 685231d4, ERROR monitor data (00000000) does not match expected value (51d00000)
# weird
# @5550: On port #:           2, Cmd:                                     0101, Data1: 8f5ce51d, Data2: 685231d4, ERROR monitor data (00000000) does not match expected value (51d00000)
# weird
# @5550: On port #:           3, Cmd:                                     0101, Data1: 8f5ce51d, Data2: 685231d4, ERROR monitor data (00000000) does not match expected value (51d00000)
# weird
# @5550: On port #:           4, Cmd:                                     0101, Data1: 8f5ce51d, Data2: 685231d4, ERROR monitor data (00000000) does not match expected value (51d00000)
# weird
# @5650: On port #:           1, Cmd:                                     0101, Data1: 8f5ce51d, Data2: 685231d4, ERROR monitor data (00000000) does not match expected value (51d00000)
# weird
# @5650: On port #:           2, Cmd:                                     0101, Data1: 8f5ce51d, Data2: 685231d4, ERROR monitor data (00000000) does not match expected value (51d00000)
# weird
# @5650: On port #:           3, Cmd:                                     0101, Data1: 8f5ce51d, Data2: 685231d4, ERROR monitor data (00000000) does not match expected value (51d00000)
# weird
# @5650: On port #:           4, Cmd:                                     0101, Data1: 8f5ce51d, Data2: 685231d4, ERROR monitor data (00000000) does not match expected value (51d00000)
# weird
# @5750: On port #:           1, Cmd:                                     0101, Data1: 8f5ce51d, Data2: 685231d4, ERROR monitor data (00000000) does not match expected value (51d00000)
# weird
# @5750: On port #:           2, Cmd:                                     0101, Data1: 8f5ce51d, Data2: 685231d4, ERROR monitor data (00000000) does not match expected value (51d00000)
# weird
# @5750: On port #:           3, Cmd:                                     0101, Data1: 8f5ce51d, Data2: 685231d4, ERROR monitor data (00000000) does not match expected value (51d00000)
# weird
# @5750: On port #:           4, Cmd:                                     0101, Data1: 8f5ce51d, Data2: 685231d4, ERROR monitor data (00000000) does not match expected value (51d00000)
# weird
# @5850: On port #:           1, Cmd:                                     0101, Data1: 8f5ce51d, Data2: 685231d4, ERROR monitor data (00000000) does not match expected value (51d00000)
# weird
# @5850: On port #:           2, Cmd:                                     0101, Data1: 8f5ce51d, Data2: 685231d4, ERROR monitor data (00000000) does not match expected value (51d00000)
# weird
# @5850: On port #:           3, Cmd:                                     0101, Data1: 8f5ce51d, Data2: 685231d4, ERROR monitor data (00000000) does not match expected value (51d00000)
# weird
# @5850: On port #:           4, Cmd:                                     0101, Data1: 8f5ce51d, Data2: 685231d4, ERROR monitor data (00000000) does not match expected value (51d00000)
# weird
# @5950: On port #:           2, Cmd:                                     0010, Data1: 00affe40, Data2: 4f26344f, ERROR monitor data (00000000) does not match expected value (b189c9f1)
# weird
# @5950: On port #:           3, Cmd:                                     0010, Data1: 00affe40, Data2: 4f26344f, ERROR monitor data (00000000) does not match expected value (b189c9f1)
# weird
# @5950: On port #:           4, Cmd:                                     0010, Data1: 00affe40, Data2: 4f26344f, ERROR monitor data (00000000) does not match expected value (b189c9f1)
# weird
# @6050: On port #:           1, Cmd:                                     0010, Data1: 00affe40, Data2: 4f26344f, ERROR monitor data (00000000) does not match expected value (b189c9f1)
# weird
# @6050: On port #:           3, Cmd:                                     0010, Data1: 00affe40, Data2: 4f26344f, ERROR monitor data (00000000) does not match expected value (b189c9f1)
# weird
# @6050: On port #:           4, Cmd:                                     0010, Data1: 00affe40, Data2: 4f26344f, ERROR monitor data (00000000) does not match expected value (b189c9f1)
# weird
# @6150: On port #:           1, Cmd:                                     0010, Data1: 00affe40, Data2: 4f26344f, ERROR monitor data (00000000) does not match expected value (b189c9f1)
# weird
# @6150: On port #:           2, Cmd:                                     0010, Data1: 00affe40, Data2: 4f26344f, ERROR monitor data (00000000) does not match expected value (b189c9f1)
# weird
# @6150: On port #:           4, Cmd:                                     0010, Data1: 00affe40, Data2: 4f26344f, ERROR monitor data (00000000) does not match expected value (b189c9f1)
# weird
# @6250: On port #:           1, Cmd:                                     0010, Data1: 00affe40, Data2: 4f26344f, ERROR monitor data (00000000) does not match expected value (b189c9f1)
# weird
# @6250: On port #:           2, Cmd:                                     0010, Data1: 00affe40, Data2: 4f26344f, ERROR monitor data (00000000) does not match expected value (b189c9f1)
# weird
# @6250: On port #:           3, Cmd:                                     0010, Data1: 00affe40, Data2: 4f26344f, ERROR monitor data (00000000) does not match expected value (b189c9f1)
# weird
# @6350: On port #:           2, Cmd:                                     0010, Data1: 00affe40, Data2: 4f26344f, ERROR monitor data (00000000) does not match expected value (b189c9f1)
# weird
# @6350: On port #:           3, Cmd:                                     0010, Data1: 00affe40, Data2: 4f26344f, ERROR monitor data (00000000) does not match expected value (b189c9f1)
# weird
# @6350: On port #:           4, Cmd:                                     0010, Data1: 00affe40, Data2: 4f26344f, ERROR monitor data (00000000) does not match expected value (b189c9f1)
# weird
# @6450: On port #:           1, Cmd:                                     0010, Data1: 00affe40, Data2: 4f26344f, ERROR monitor data (00000000) does not match expected value (b189c9f1)
# weird
# @6450: On port #:           3, Cmd:                                     0010, Data1: 00affe40, Data2: 4f26344f, ERROR monitor data (00000000) does not match expected value (b189c9f1)
# weird
# @6450: On port #:           4, Cmd:                                     0010, Data1: 00affe40, Data2: 4f26344f, ERROR monitor data (00000000) does not match expected value (b189c9f1)
# weird
# @6550: On port #:           1, Cmd:                                     0010, Data1: 00affe40, Data2: 4f26344f, ERROR monitor data (00000000) does not match expected value (b189c9f1)
# weird
# @6550: On port #:           2, Cmd:                                     0010, Data1: 00affe40, Data2: 4f26344f, ERROR monitor data (00000000) does not match expected value (b189c9f1)
# @6550: On port #:           3, Cmd:                                     0101, Data1: 1c6c0927, Data2: ab9f9977, ERROR monitor data (b2685ea8) does not match expected value (93800000)
# weird
# @6550: On port #:           4, Cmd:                                     0010, Data1: 00affe40, Data2: 4f26344f, ERROR monitor data (00000000) does not match expected value (b189c9f1)
# weird
# @6650: On port #:           1, Cmd:                                     0010, Data1: 00affe40, Data2: 4f26344f, ERROR monitor data (00000000) does not match expected value (b189c9f1)
# weird
# @6650: On port #:           2, Cmd:                                     0010, Data1: 00affe40, Data2: 4f26344f, ERROR monitor data (00000000) does not match expected value (b189c9f1)
# weird
# @6650: On port #:           3, Cmd:                                     0010, Data1: 00affe40, Data2: 4f26344f, ERROR monitor data (00000000) does not match expected value (b189c9f1)
# @6650: On port #:           4, Cmd:                                     0101, Data1: 1c6c0927, Data2: ab9f9977, ERROR monitor data (b2685ea8) does not match expected value (93800000)
# @6750: On port #:           1, Cmd:                                     0101, Data1: 98ee03a7, Data2: bf272412, ERROR monitor data (b189c9f1) does not match expected value (0e9c0000)
# weird
# @6750: On port #:           2, Cmd:                                     0101, Data1: 98ee03a7, Data2: bf272412, ERROR monitor data (00000000) does not match expected value (0e9c0000)
# weird
# @6750: On port #:           3, Cmd:                                     0101, Data1: 98ee03a7, Data2: bf272412, ERROR monitor data (00000000) does not match expected value (0e9c0000)
# weird
# @6750: On port #:           4, Cmd:                                     0101, Data1: 98ee03a7, Data2: bf272412, ERROR monitor data (00000000) does not match expected value (0e9c0000)
# weird
# @6850: On port #:           1, Cmd:                                     0101, Data1: 98ee03a7, Data2: bf272412, ERROR monitor data (00000000) does not match expected value (0e9c0000)
# @6850: On port #:           2, Cmd:                                     0101, Data1: 98ee03a7, Data2: bf272412, ERROR monitor data (b189c9f1) does not match expected value (0e9c0000)
# weird
# @6850: On port #:           3, Cmd:                                     0101, Data1: 98ee03a7, Data2: bf272412, ERROR monitor data (00000000) does not match expected value (0e9c0000)
# weird
# @6850: On port #:           4, Cmd:                                     0101, Data1: 98ee03a7, Data2: bf272412, ERROR monitor data (00000000) does not match expected value (0e9c0000)
# weird
# @6950: On port #:           1, Cmd:                                     0101, Data1: 98ee03a7, Data2: bf272412, ERROR monitor data (00000000) does not match expected value (0e9c0000)
# weird
# @6950: On port #:           2, Cmd:                                     0101, Data1: 98ee03a7, Data2: bf272412, ERROR monitor data (00000000) does not match expected value (0e9c0000)
# @6950: On port #:           3, Cmd:                                     0101, Data1: 98ee03a7, Data2: bf272412, ERROR monitor data (b189c9f1) does not match expected value (0e9c0000)
# weird
# @6950: On port #:           4, Cmd:                                     0101, Data1: 98ee03a7, Data2: bf272412, ERROR monitor data (00000000) does not match expected value (0e9c0000)
# weird
# @7050: On port #:           1, Cmd:                                     0101, Data1: 98ee03a7, Data2: bf272412, ERROR monitor data (00000000) does not match expected value (0e9c0000)
# weird
# @7050: On port #:           2, Cmd:                                     0101, Data1: 98ee03a7, Data2: bf272412, ERROR monitor data (00000000) does not match expected value (0e9c0000)
# weird
# @7050: On port #:           3, Cmd:                                     0101, Data1: 98ee03a7, Data2: bf272412, ERROR monitor data (00000000) does not match expected value (0e9c0000)
# @7050: On port #:           4, Cmd:                                     0101, Data1: 98ee03a7, Data2: bf272412, ERROR monitor data (b189c9f1) does not match expected value (0e9c0000)
# @7150: On port #:           1, Cmd:                                     0110, Data1: 3b418fbb, Data2: 142b24df, ERROR monitor data (df937833) does not match expected value (00000000)
# weird
# @7150: On port #:           2, Cmd:                                     0101, Data1: 98ee03a7, Data2: bf272412, ERROR monitor data (00000000) does not match expected value (0e9c0000)
# weird
# @7150: On port #:           3, Cmd:                                     0101, Data1: 98ee03a7, Data2: bf272412, ERROR monitor data (00000000) does not match expected value (0e9c0000)
# weird
# @7150: On port #:           4, Cmd:                                     0101, Data1: 98ee03a7, Data2: bf272412, ERROR monitor data (00000000) does not match expected value (0e9c0000)
# weird
# @7250: On port #:           1, Cmd:                                     0101, Data1: 98ee03a7, Data2: bf272412, ERROR monitor data (00000000) does not match expected value (0e9c0000)
# @7250: On port #:           2, Cmd:                                     0110, Data1: 3b418fbb, Data2: 142b24df, ERROR monitor data (df937833) does not match expected value (00000000)
# weird
# @7250: On port #:           3, Cmd:                                     0101, Data1: 98ee03a7, Data2: bf272412, ERROR monitor data (00000000) does not match expected value (0e9c0000)
# weird
# @7250: On port #:           4, Cmd:                                     0101, Data1: 98ee03a7, Data2: bf272412, ERROR monitor data (00000000) does not match expected value (0e9c0000)
# weird
# @7350: On port #:           1, Cmd:                                     0101, Data1: 98ee03a7, Data2: bf272412, ERROR monitor data (00000000) does not match expected value (0e9c0000)
# weird
# @7350: On port #:           2, Cmd:                                     0101, Data1: 98ee03a7, Data2: bf272412, ERROR monitor data (00000000) does not match expected value (0e9c0000)
# @7350: On port #:           3, Cmd:                                     0110, Data1: 3b418fbb, Data2: 142b24df, ERROR monitor data (df937833) does not match expected value (00000000)
# weird
# @7350: On port #:           4, Cmd:                                     0101, Data1: 98ee03a7, Data2: bf272412, ERROR monitor data (00000000) does not match expected value (0e9c0000)
# weird
# @7450: On port #:           1, Cmd:                                     0101, Data1: 98ee03a7, Data2: bf272412, ERROR monitor data (00000000) does not match expected value (0e9c0000)
# weird
# @7450: On port #:           2, Cmd:                                     0101, Data1: 98ee03a7, Data2: bf272412, ERROR monitor data (00000000) does not match expected value (0e9c0000)
# weird
# @7450: On port #:           3, Cmd:                                     0101, Data1: 98ee03a7, Data2: bf272412, ERROR monitor data (00000000) does not match expected value (0e9c0000)
# @7450: On port #:           4, Cmd:                                     0110, Data1: 3b418fbb, Data2: 142b24df, ERROR monitor data (df937833) does not match expected value (00000000)
# weird
# @7550: On port #:           1, Cmd:                                     0101, Data1: e68b631e, Data2: 6913c153, ERROR monitor data (00000000) does not match expected value (18f00000)
# weird
# @7550: On port #:           2, Cmd:                                     0101, Data1: e68b631e, Data2: 6913c153, ERROR monitor data (00000000) does not match expected value (18f00000)
# weird
# @7550: On port #:           3, Cmd:                                     0101, Data1: e68b631e, Data2: 6913c153, ERROR monitor data (00000000) does not match expected value (18f00000)
# weird
# @7550: On port #:           4, Cmd:                                     0101, Data1: e68b631e, Data2: 6913c153, ERROR monitor data (00000000) does not match expected value (18f00000)
# weird
# @7650: On port #:           1, Cmd:                                     0101, Data1: e68b631e, Data2: 6913c153, ERROR monitor data (00000000) does not match expected value (18f00000)
# weird
# @7650: On port #:           2, Cmd:                                     0101, Data1: e68b631e, Data2: 6913c153, ERROR monitor data (00000000) does not match expected value (18f00000)
# weird
# @7650: On port #:           3, Cmd:                                     0101, Data1: e68b631e, Data2: 6913c153, ERROR monitor data (00000000) does not match expected value (18f00000)
# weird
# @7650: On port #:           4, Cmd:                                     0101, Data1: e68b631e, Data2: 6913c153, ERROR monitor data (00000000) does not match expected value (18f00000)
# weird
# @7750: On port #:           2, Cmd:                                     0101, Data1: e68b631e, Data2: 6913c153, ERROR monitor data (00000000) does not match expected value (18f00000)
# weird
# @7750: On port #:           3, Cmd:                                     0101, Data1: e68b631e, Data2: 6913c153, ERROR monitor data (00000000) does not match expected value (18f00000)
# weird
# @7750: On port #:           4, Cmd:                                     0101, Data1: e68b631e, Data2: 6913c153, ERROR monitor data (00000000) does not match expected value (18f00000)
# weird
# @7850: On port #:           1, Cmd:                                     0101, Data1: e68b631e, Data2: 6913c153, ERROR monitor data (00000000) does not match expected value (18f00000)
# weird
# @7850: On port #:           3, Cmd:                                     0101, Data1: e68b631e, Data2: 6913c153, ERROR monitor data (00000000) does not match expected value (18f00000)
# weird
# @7850: On port #:           4, Cmd:                                     0101, Data1: e68b631e, Data2: 6913c153, ERROR monitor data (00000000) does not match expected value (18f00000)
# weird
# @7950: On port #:           1, Cmd:                                     0101, Data1: e68b631e, Data2: 6913c153, ERROR monitor data (00000000) does not match expected value (18f00000)
# weird
# @7950: On port #:           2, Cmd:                                     0101, Data1: e68b631e, Data2: 6913c153, ERROR monitor data (00000000) does not match expected value (18f00000)
# weird
# @7950: On port #:           4, Cmd:                                     0101, Data1: e68b631e, Data2: 6913c153, ERROR monitor data (00000000) does not match expected value (18f00000)
# weird
# @8050: On port #:           1, Cmd:                                     0101, Data1: e68b631e, Data2: 6913c153, ERROR monitor data (00000000) does not match expected value (18f00000)
# weird
# @8050: On port #:           2, Cmd:                                     0101, Data1: e68b631e, Data2: 6913c153, ERROR monitor data (00000000) does not match expected value (18f00000)
# weird
# @8050: On port #:           3, Cmd:                                     0101, Data1: e68b631e, Data2: 6913c153, ERROR monitor data (00000000) does not match expected value (18f00000)
# weird
# @8150: On port #:           2, Cmd:                                     0101, Data1: e68b631e, Data2: 6913c153, ERROR monitor data (00000000) does not match expected value (18f00000)
# weird
# @8150: On port #:           3, Cmd:                                     0101, Data1: e68b631e, Data2: 6913c153, ERROR monitor data (00000000) does not match expected value (18f00000)
# weird
# @8150: On port #:           4, Cmd:                                     0101, Data1: e68b631e, Data2: 6913c153, ERROR monitor data (00000000) does not match expected value (18f00000)
# weird
# @8250: On port #:           1, Cmd:                                     0101, Data1: e68b631e, Data2: 6913c153, ERROR monitor data (00000000) does not match expected value (18f00000)
# weird
# @8250: On port #:           3, Cmd:                                     0101, Data1: e68b631e, Data2: 6913c153, ERROR monitor data (00000000) does not match expected value (18f00000)
# weird
# @8250: On port #:           4, Cmd:                                     0101, Data1: e68b631e, Data2: 6913c153, ERROR monitor data (00000000) does not match expected value (18f00000)
# weird
# @8350: On port #:           1, Cmd:                                     0110, Data1: 1912b378, Data2: 06c9cd28, ERROR monitor data (00000000) does not match expected value (001912b3)
# weird
# @8350: On port #:           2, Cmd:                                     0110, Data1: 1912b378, Data2: 06c9cd28, ERROR monitor data (00000000) does not match expected value (001912b3)
# weird
# @8350: On port #:           4, Cmd:                                     0110, Data1: 1912b378, Data2: 06c9cd28, ERROR monitor data (00000000) does not match expected value (001912b3)
# weird
# @8450: On port #:           1, Cmd:                                     0110, Data1: 1912b378, Data2: 06c9cd28, ERROR monitor data (00000000) does not match expected value (001912b3)
# weird
# @8450: On port #:           2, Cmd:                                     0110, Data1: 1912b378, Data2: 06c9cd28, ERROR monitor data (00000000) does not match expected value (001912b3)
# weird
# @8450: On port #:           3, Cmd:                                     0110, Data1: 1912b378, Data2: 06c9cd28, ERROR monitor data (00000000) does not match expected value (001912b3)
# weird
# @8550: On port #:           2, Cmd:                                     0110, Data1: 1912b378, Data2: 06c9cd28, ERROR monitor data (00000000) does not match expected value (001912b3)
# weird
# @8550: On port #:           3, Cmd:                                     0110, Data1: 1912b378, Data2: 06c9cd28, ERROR monitor data (00000000) does not match expected value (001912b3)
# weird
# @8550: On port #:           4, Cmd:                                     0110, Data1: 1912b378, Data2: 06c9cd28, ERROR monitor data (00000000) does not match expected value (001912b3)
# weird
# @8650: On port #:           1, Cmd:                                     0110, Data1: 1912b378, Data2: 06c9cd28, ERROR monitor data (00000000) does not match expected value (001912b3)
# weird
# @8650: On port #:           3, Cmd:                                     0110, Data1: 1912b378, Data2: 06c9cd28, ERROR monitor data (00000000) does not match expected value (001912b3)
# weird
# @8650: On port #:           4, Cmd:                                     0110, Data1: 1912b378, Data2: 06c9cd28, ERROR monitor data (00000000) does not match expected value (001912b3)
# weird
# @8750: On port #:           1, Cmd:                                     0110, Data1: 1912b378, Data2: 06c9cd28, ERROR monitor data (00000000) does not match expected value (001912b3)
# weird
# @8750: On port #:           2, Cmd:                                     0110, Data1: 1912b378, Data2: 06c9cd28, ERROR monitor data (00000000) does not match expected value (001912b3)
# weird
# @8750: On port #:           4, Cmd:                                     0110, Data1: 1912b378, Data2: 06c9cd28, ERROR monitor data (00000000) does not match expected value (001912b3)
# weird
# @8850: On port #:           1, Cmd:                                     0110, Data1: 1912b378, Data2: 06c9cd28, ERROR monitor data (00000000) does not match expected value (001912b3)
# weird
# @8850: On port #:           2, Cmd:                                     0110, Data1: 1912b378, Data2: 06c9cd28, ERROR monitor data (00000000) does not match expected value (001912b3)
# weird
# @8850: On port #:           3, Cmd:                                     0110, Data1: 1912b378, Data2: 06c9cd28, ERROR monitor data (00000000) does not match expected value (001912b3)
# weird
# @8950: On port #:           1, Cmd:                                     0110, Data1: 1912b378, Data2: 06c9cd28, ERROR monitor data (00000000) does not match expected value (001912b3)
# weird
# @8950: On port #:           2, Cmd:                                     0110, Data1: 1912b378, Data2: 06c9cd28, ERROR monitor data (00000000) does not match expected value (001912b3)
# weird
# @8950: On port #:           3, Cmd:                                     0110, Data1: 1912b378, Data2: 06c9cd28, ERROR monitor data (00000000) does not match expected value (001912b3)
# weird
# @8950: On port #:           4, Cmd:                                     0110, Data1: 1912b378, Data2: 06c9cd28, ERROR monitor data (00000000) does not match expected value (001912b3)
